<?xml version="1.0" encoding="UTF-8"?>
<svg width="18px" height="30px" viewBox="0 0 18 30" version="1.1" xmlns="http://www.w3.org/2000/svg" xmlns:xlink="http://www.w3.org/1999/xlink">
    <!-- Generator: Sketch 56.3 (81716) - https://sketch.com -->
    <title>icons8-room_sound_filled copy</title>
    <desc>Created with Sketch.</desc>
    <g id="final" stroke="none" stroke-width="1" fill="none" fill-rule="evenodd">
        <g id="Artboard" transform="translate(-193.000000, -54.000000)" fill="#FFFFFF" fill-rule="nonzero">
            <g id="icons8-room_sound_filled-copy" transform="translate(193.000000, 54.000000)">
                <path d="M16.0495924,0 C15.6165085,0 15.1987096,0.183423913 14.9057407,0.499320652 L6.52173913,9.13043478 L6.52173913,20.8695652 L14.9057407,29.5006793 C15.1987096,29.8191235 15.6165085,30 16.0495924,30 C16.908118,30 17.6086957,29.2994224 17.6086957,28.4408967 L17.6086957,1.55910326 C17.6086957,0.700577609 16.908118,0 16.0495924,0 Z M1.95652174,9.13043478 C0.878906087,9.13043478 0,10.0093409 0,11.0869565 L0,18.9130435 C0,19.9906591 0.878906087,20.8695652 1.95652174,20.8695652 L5.2173913,20.8695652 L5.2173913,9.13043478 L1.95652174,9.13043478 Z" id="Shape"></path>
            </g>
        </g>
    </g>
</svg>