<?xml version="1.0" encoding="UTF-8"?>
<svg width="30px" height="30px" viewBox="0 0 30 30" version="1.1" xmlns="http://www.w3.org/2000/svg" xmlns:xlink="http://www.w3.org/1999/xlink">
    <!-- Generator: Sketch 56.3 (81716) - https://sketch.com -->
    <title>icons8-room_sound_filled</title>
    <desc>Created with Sketch.</desc>
    <g id="final" stroke="none" stroke-width="1" fill="none" fill-rule="evenodd">
        <g id="Artboard" transform="translate(-48.000000, -54.000000)" fill="#FFFFFF" fill-rule="nonzero">
            <g id="icons8-room_sound_filled" transform="translate(48.000000, 54.000000)">
                <path d="M16.0495924,0 C15.6165085,0 15.1987096,0.183423913 14.9057407,0.499320652 L6.52173913,9.13043478 L6.52173913,20.8695652 L14.9057407,29.5006793 C15.1987096,29.8191235 15.6165085,30 16.0495924,30 C16.908118,30 17.6086957,29.2994224 17.6086957,28.4408967 L17.6086957,1.55910326 C17.6086957,0.700577609 16.908118,0 16.0495924,0 Z M24.5838998,5.49252717 L23.8527515,6.57014283 C26.7442259,8.26936174 28.6956522,11.4079487 28.6956522,15 C28.6956522,18.592052 26.7442259,21.7306389 23.8527515,23.4298572 L24.5838998,24.5074728 C27.8218409,22.5713315 30,19.0404215 30,15 C30,10.9595791 27.8218409,7.42866848 24.5838998,5.49252717 Z M22.3853602,8.72537348 L21.6465691,9.81063196 C23.5088315,10.7965357 24.7826087,12.7505093 24.7826087,15 C24.7826087,17.2494907 23.5088315,19.203465 21.6465691,20.189368 L22.3853602,21.2746265 C24.591542,20.046705 26.0869565,17.6978602 26.0869565,15 C26.0869565,12.3021398 24.591542,9.953295 22.3853602,8.72537348 Z M1.95652174,9.13043478 C0.878906087,9.13043478 0,10.0093409 0,11.0869565 L0,18.9130435 C0,19.9906591 0.878906087,20.8695652 1.95652174,20.8695652 L5.2173913,20.8695652 L5.2173913,9.13043478 L1.95652174,9.13043478 Z M20.1664402,11.9913385 L19.4047213,13.1148098 C20.2454146,13.3338998 20.8695652,14.0905233 20.8695652,15 C20.8695652,15.9094767 20.2454146,16.6661009 19.4047213,16.8851902 L20.1664402,18.0086615 C21.3434107,17.5144363 22.173913,16.3527515 22.173913,15 C22.173913,13.6472485 21.3434107,12.4830163 20.1664402,11.9913385 Z" id="Shape"></path>
            </g>
        </g>
    </g>
</svg>